G04 #@! TF.GenerationSoftware,KiCad,Pcbnew,(5.1.5-0-10_14)*
G04 #@! TF.CreationDate,2019-12-24T14:19:35-05:00*
G04 #@! TF.ProjectId,procon_gcc_main_pcb,70726f63-6f6e-45f6-9763-635f6d61696e,rev?*
G04 #@! TF.SameCoordinates,Original*
G04 #@! TF.FileFunction,Legend,Bot*
G04 #@! TF.FilePolarity,Positive*
%FSLAX46Y46*%
G04 Gerber Fmt 4.6, Leading zero omitted, Abs format (unit mm)*
G04 Created by KiCad (PCBNEW (5.1.5-0-10_14)) date 2019-12-24 14:19:35*
%MOMM*%
%LPD*%
G04 APERTURE LIST*
%ADD10C,0.152400*%
%ADD11C,0.150000*%
%ADD12C,0.125000*%
G04 APERTURE END LIST*
D10*
X128105002Y-130736999D02*
X116750998Y-130736999D01*
X128105002Y-124283001D02*
X128105002Y-130736999D01*
X116750998Y-124283001D02*
X128105002Y-124283001D01*
X116750998Y-130736999D02*
X116750998Y-124283001D01*
X146139002Y-130736999D02*
X134784998Y-130736999D01*
X146139002Y-124283001D02*
X146139002Y-130736999D01*
X134784998Y-124283001D02*
X146139002Y-124283001D01*
X134784998Y-130736999D02*
X134784998Y-124283001D01*
X116661001Y-119469002D02*
X116661001Y-108114998D01*
X123114999Y-119469002D02*
X116661001Y-119469002D01*
X123114999Y-108114998D02*
X123114999Y-119469002D01*
X116661001Y-108114998D02*
X123114999Y-108114998D01*
X152832999Y-108114998D02*
X152832999Y-119469002D01*
X146379001Y-108114998D02*
X152832999Y-108114998D01*
X146379001Y-119469002D02*
X146379001Y-108114998D01*
X152832999Y-119469002D02*
X146379001Y-119469002D01*
D11*
X122832761Y-126176666D02*
X122880380Y-126319523D01*
X122880380Y-126557619D01*
X122832761Y-126652857D01*
X122785142Y-126700476D01*
X122689904Y-126748095D01*
X122594666Y-126748095D01*
X122499428Y-126700476D01*
X122451809Y-126652857D01*
X122404190Y-126557619D01*
X122356571Y-126367142D01*
X122308952Y-126271904D01*
X122261333Y-126224285D01*
X122166095Y-126176666D01*
X122070857Y-126176666D01*
X121975619Y-126224285D01*
X121928000Y-126271904D01*
X121880380Y-126367142D01*
X121880380Y-126605238D01*
X121928000Y-126748095D01*
X121880380Y-127081428D02*
X122880380Y-127319523D01*
X122166095Y-127510000D01*
X122880380Y-127700476D01*
X121880380Y-127938571D01*
X122308952Y-128462380D02*
X122261333Y-128367142D01*
X122213714Y-128319523D01*
X122118476Y-128271904D01*
X122070857Y-128271904D01*
X121975619Y-128319523D01*
X121928000Y-128367142D01*
X121880380Y-128462380D01*
X121880380Y-128652857D01*
X121928000Y-128748095D01*
X121975619Y-128795714D01*
X122070857Y-128843333D01*
X122118476Y-128843333D01*
X122213714Y-128795714D01*
X122261333Y-128748095D01*
X122308952Y-128652857D01*
X122308952Y-128462380D01*
X122356571Y-128367142D01*
X122404190Y-128319523D01*
X122499428Y-128271904D01*
X122689904Y-128271904D01*
X122785142Y-128319523D01*
X122832761Y-128367142D01*
X122880380Y-128462380D01*
X122880380Y-128652857D01*
X122832761Y-128748095D01*
X122785142Y-128795714D01*
X122689904Y-128843333D01*
X122499428Y-128843333D01*
X122404190Y-128795714D01*
X122356571Y-128748095D01*
X122308952Y-128652857D01*
X129738380Y-124349333D02*
X129738380Y-123873142D01*
X128738380Y-123873142D01*
X129738380Y-124587428D02*
X129071714Y-125111238D01*
X129071714Y-124587428D02*
X129738380Y-125111238D01*
X129690761Y-125444571D02*
X129738380Y-125587428D01*
X129738380Y-125825523D01*
X129690761Y-125920761D01*
X129643142Y-125968380D01*
X129547904Y-126016000D01*
X129452666Y-126016000D01*
X129357428Y-125968380D01*
X129309809Y-125920761D01*
X129262190Y-125825523D01*
X129214571Y-125635047D01*
X129166952Y-125539809D01*
X129119333Y-125492190D01*
X129024095Y-125444571D01*
X128928857Y-125444571D01*
X128833619Y-125492190D01*
X128786000Y-125539809D01*
X128738380Y-125635047D01*
X128738380Y-125873142D01*
X128786000Y-126016000D01*
X129071714Y-126444571D02*
X129738380Y-126444571D01*
X129166952Y-126444571D02*
X129119333Y-126492190D01*
X129071714Y-126587428D01*
X129071714Y-126730285D01*
X129119333Y-126825523D01*
X129214571Y-126873142D01*
X129738380Y-126873142D01*
X129738380Y-127777904D02*
X129214571Y-127777904D01*
X129119333Y-127730285D01*
X129071714Y-127635047D01*
X129071714Y-127444571D01*
X129119333Y-127349333D01*
X129690761Y-127777904D02*
X129738380Y-127682666D01*
X129738380Y-127444571D01*
X129690761Y-127349333D01*
X129595523Y-127301714D01*
X129500285Y-127301714D01*
X129405047Y-127349333D01*
X129357428Y-127444571D01*
X129357428Y-127682666D01*
X129309809Y-127777904D01*
X129071714Y-128254095D02*
X130071714Y-128254095D01*
X129119333Y-128254095D02*
X129071714Y-128349333D01*
X129071714Y-128539809D01*
X129119333Y-128635047D01*
X129166952Y-128682666D01*
X129262190Y-128730285D01*
X129547904Y-128730285D01*
X129643142Y-128682666D01*
X129690761Y-128635047D01*
X129738380Y-128539809D01*
X129738380Y-128349333D01*
X129690761Y-128254095D01*
X129738380Y-129158857D02*
X128738380Y-129158857D01*
X129119333Y-129158857D02*
X129071714Y-129254095D01*
X129071714Y-129444571D01*
X129119333Y-129539809D01*
X129166952Y-129587428D01*
X129262190Y-129635047D01*
X129547904Y-129635047D01*
X129643142Y-129587428D01*
X129690761Y-129539809D01*
X129738380Y-129444571D01*
X129738380Y-129254095D01*
X129690761Y-129158857D01*
X129738380Y-130492190D02*
X129214571Y-130492190D01*
X129119333Y-130444571D01*
X129071714Y-130349333D01*
X129071714Y-130158857D01*
X129119333Y-130063619D01*
X129690761Y-130492190D02*
X129738380Y-130396952D01*
X129738380Y-130158857D01*
X129690761Y-130063619D01*
X129595523Y-130016000D01*
X129500285Y-130016000D01*
X129405047Y-130063619D01*
X129357428Y-130158857D01*
X129357428Y-130396952D01*
X129309809Y-130492190D01*
X129690761Y-131396952D02*
X129738380Y-131301714D01*
X129738380Y-131111238D01*
X129690761Y-131016000D01*
X129643142Y-130968380D01*
X129547904Y-130920761D01*
X129262190Y-130920761D01*
X129166952Y-130968380D01*
X129119333Y-131016000D01*
X129071714Y-131111238D01*
X129071714Y-131301714D01*
X129119333Y-131396952D01*
X129738380Y-131825523D02*
X128738380Y-131825523D01*
X129357428Y-131920761D02*
X129738380Y-132206476D01*
X129071714Y-132206476D02*
X129452666Y-131825523D01*
X121880380Y-127510000D02*
X122118476Y-127510000D01*
X122023238Y-127271904D02*
X122118476Y-127510000D01*
X122023238Y-127748095D01*
X122308952Y-127367142D02*
X122118476Y-127510000D01*
X122308952Y-127652857D01*
X121880380Y-127510000D02*
X122118476Y-127510000D01*
X122023238Y-127271904D02*
X122118476Y-127510000D01*
X122023238Y-127748095D01*
X122308952Y-127367142D02*
X122118476Y-127510000D01*
X122308952Y-127652857D01*
X140866761Y-126176666D02*
X140914380Y-126319523D01*
X140914380Y-126557619D01*
X140866761Y-126652857D01*
X140819142Y-126700476D01*
X140723904Y-126748095D01*
X140628666Y-126748095D01*
X140533428Y-126700476D01*
X140485809Y-126652857D01*
X140438190Y-126557619D01*
X140390571Y-126367142D01*
X140342952Y-126271904D01*
X140295333Y-126224285D01*
X140200095Y-126176666D01*
X140104857Y-126176666D01*
X140009619Y-126224285D01*
X139962000Y-126271904D01*
X139914380Y-126367142D01*
X139914380Y-126605238D01*
X139962000Y-126748095D01*
X139914380Y-127081428D02*
X140914380Y-127319523D01*
X140200095Y-127510000D01*
X140914380Y-127700476D01*
X139914380Y-127938571D01*
X139914380Y-128795714D02*
X139914380Y-128319523D01*
X140390571Y-128271904D01*
X140342952Y-128319523D01*
X140295333Y-128414761D01*
X140295333Y-128652857D01*
X140342952Y-128748095D01*
X140390571Y-128795714D01*
X140485809Y-128843333D01*
X140723904Y-128843333D01*
X140819142Y-128795714D01*
X140866761Y-128748095D01*
X140914380Y-128652857D01*
X140914380Y-128414761D01*
X140866761Y-128319523D01*
X140819142Y-128271904D01*
X134056380Y-124119142D02*
X133580190Y-123785809D01*
X134056380Y-123547714D02*
X133056380Y-123547714D01*
X133056380Y-123928666D01*
X133104000Y-124023904D01*
X133151619Y-124071523D01*
X133246857Y-124119142D01*
X133389714Y-124119142D01*
X133484952Y-124071523D01*
X133532571Y-124023904D01*
X133580190Y-123928666D01*
X133580190Y-123547714D01*
X133389714Y-124452476D02*
X134056380Y-124690571D01*
X133389714Y-124928666D02*
X134056380Y-124690571D01*
X134294476Y-124595333D01*
X134342095Y-124547714D01*
X134389714Y-124452476D01*
X134008761Y-125262000D02*
X134056380Y-125404857D01*
X134056380Y-125642952D01*
X134008761Y-125738190D01*
X133961142Y-125785809D01*
X133865904Y-125833428D01*
X133770666Y-125833428D01*
X133675428Y-125785809D01*
X133627809Y-125738190D01*
X133580190Y-125642952D01*
X133532571Y-125452476D01*
X133484952Y-125357238D01*
X133437333Y-125309619D01*
X133342095Y-125262000D01*
X133246857Y-125262000D01*
X133151619Y-125309619D01*
X133104000Y-125357238D01*
X133056380Y-125452476D01*
X133056380Y-125690571D01*
X133104000Y-125833428D01*
X133389714Y-126262000D02*
X134056380Y-126262000D01*
X133484952Y-126262000D02*
X133437333Y-126309619D01*
X133389714Y-126404857D01*
X133389714Y-126547714D01*
X133437333Y-126642952D01*
X133532571Y-126690571D01*
X134056380Y-126690571D01*
X134056380Y-127595333D02*
X133532571Y-127595333D01*
X133437333Y-127547714D01*
X133389714Y-127452476D01*
X133389714Y-127262000D01*
X133437333Y-127166761D01*
X134008761Y-127595333D02*
X134056380Y-127500095D01*
X134056380Y-127262000D01*
X134008761Y-127166761D01*
X133913523Y-127119142D01*
X133818285Y-127119142D01*
X133723047Y-127166761D01*
X133675428Y-127262000D01*
X133675428Y-127500095D01*
X133627809Y-127595333D01*
X133389714Y-128071523D02*
X134389714Y-128071523D01*
X133437333Y-128071523D02*
X133389714Y-128166761D01*
X133389714Y-128357238D01*
X133437333Y-128452476D01*
X133484952Y-128500095D01*
X133580190Y-128547714D01*
X133865904Y-128547714D01*
X133961142Y-128500095D01*
X134008761Y-128452476D01*
X134056380Y-128357238D01*
X134056380Y-128166761D01*
X134008761Y-128071523D01*
X134056380Y-128976285D02*
X133056380Y-128976285D01*
X133437333Y-128976285D02*
X133389714Y-129071523D01*
X133389714Y-129262000D01*
X133437333Y-129357238D01*
X133484952Y-129404857D01*
X133580190Y-129452476D01*
X133865904Y-129452476D01*
X133961142Y-129404857D01*
X134008761Y-129357238D01*
X134056380Y-129262000D01*
X134056380Y-129071523D01*
X134008761Y-128976285D01*
X134056380Y-130309619D02*
X133532571Y-130309619D01*
X133437333Y-130262000D01*
X133389714Y-130166761D01*
X133389714Y-129976285D01*
X133437333Y-129881047D01*
X134008761Y-130309619D02*
X134056380Y-130214380D01*
X134056380Y-129976285D01*
X134008761Y-129881047D01*
X133913523Y-129833428D01*
X133818285Y-129833428D01*
X133723047Y-129881047D01*
X133675428Y-129976285D01*
X133675428Y-130214380D01*
X133627809Y-130309619D01*
X134008761Y-131214380D02*
X134056380Y-131119142D01*
X134056380Y-130928666D01*
X134008761Y-130833428D01*
X133961142Y-130785809D01*
X133865904Y-130738190D01*
X133580190Y-130738190D01*
X133484952Y-130785809D01*
X133437333Y-130833428D01*
X133389714Y-130928666D01*
X133389714Y-131119142D01*
X133437333Y-131214380D01*
X134056380Y-131642952D02*
X133056380Y-131642952D01*
X133675428Y-131738190D02*
X134056380Y-132023904D01*
X133389714Y-132023904D02*
X133770666Y-131642952D01*
X139914380Y-127510000D02*
X140152476Y-127510000D01*
X140057238Y-127271904D02*
X140152476Y-127510000D01*
X140057238Y-127748095D01*
X140342952Y-127367142D02*
X140152476Y-127510000D01*
X140342952Y-127652857D01*
X139914380Y-127510000D02*
X140152476Y-127510000D01*
X140057238Y-127271904D02*
X140152476Y-127510000D01*
X140057238Y-127748095D01*
X140342952Y-127367142D02*
X140152476Y-127510000D01*
X140342952Y-127652857D01*
X121221333Y-114196761D02*
X121078476Y-114244380D01*
X120840380Y-114244380D01*
X120745142Y-114196761D01*
X120697523Y-114149142D01*
X120649904Y-114053904D01*
X120649904Y-113958666D01*
X120697523Y-113863428D01*
X120745142Y-113815809D01*
X120840380Y-113768190D01*
X121030857Y-113720571D01*
X121126095Y-113672952D01*
X121173714Y-113625333D01*
X121221333Y-113530095D01*
X121221333Y-113434857D01*
X121173714Y-113339619D01*
X121126095Y-113292000D01*
X121030857Y-113244380D01*
X120792761Y-113244380D01*
X120649904Y-113292000D01*
X120316571Y-113244380D02*
X120078476Y-114244380D01*
X119888000Y-113530095D01*
X119697523Y-114244380D01*
X119459428Y-113244380D01*
X119173714Y-113244380D02*
X118507047Y-113244380D01*
X118935619Y-114244380D01*
X123530857Y-120848380D02*
X124007047Y-120848380D01*
X124007047Y-119848380D01*
X123292761Y-120181714D02*
X123054666Y-120848380D01*
X122816571Y-120181714D02*
X123054666Y-120848380D01*
X123149904Y-121086476D01*
X123197523Y-121134095D01*
X123292761Y-121181714D01*
X122483238Y-120800761D02*
X122340380Y-120848380D01*
X122102285Y-120848380D01*
X122007047Y-120800761D01*
X121959428Y-120753142D01*
X121911809Y-120657904D01*
X121911809Y-120562666D01*
X121959428Y-120467428D01*
X122007047Y-120419809D01*
X122102285Y-120372190D01*
X122292761Y-120324571D01*
X122388000Y-120276952D01*
X122435619Y-120229333D01*
X122483238Y-120134095D01*
X122483238Y-120038857D01*
X122435619Y-119943619D01*
X122388000Y-119896000D01*
X122292761Y-119848380D01*
X122054666Y-119848380D01*
X121911809Y-119896000D01*
X121483238Y-120181714D02*
X121483238Y-120848380D01*
X121483238Y-120276952D02*
X121435619Y-120229333D01*
X121340380Y-120181714D01*
X121197523Y-120181714D01*
X121102285Y-120229333D01*
X121054666Y-120324571D01*
X121054666Y-120848380D01*
X120149904Y-120848380D02*
X120149904Y-120324571D01*
X120197523Y-120229333D01*
X120292761Y-120181714D01*
X120483238Y-120181714D01*
X120578476Y-120229333D01*
X120149904Y-120800761D02*
X120245142Y-120848380D01*
X120483238Y-120848380D01*
X120578476Y-120800761D01*
X120626095Y-120705523D01*
X120626095Y-120610285D01*
X120578476Y-120515047D01*
X120483238Y-120467428D01*
X120245142Y-120467428D01*
X120149904Y-120419809D01*
X119673714Y-120181714D02*
X119673714Y-121181714D01*
X119673714Y-120229333D02*
X119578476Y-120181714D01*
X119388000Y-120181714D01*
X119292761Y-120229333D01*
X119245142Y-120276952D01*
X119197523Y-120372190D01*
X119197523Y-120657904D01*
X119245142Y-120753142D01*
X119292761Y-120800761D01*
X119388000Y-120848380D01*
X119578476Y-120848380D01*
X119673714Y-120800761D01*
X118768952Y-120848380D02*
X118768952Y-119848380D01*
X118768952Y-120229333D02*
X118673714Y-120181714D01*
X118483238Y-120181714D01*
X118388000Y-120229333D01*
X118340380Y-120276952D01*
X118292761Y-120372190D01*
X118292761Y-120657904D01*
X118340380Y-120753142D01*
X118388000Y-120800761D01*
X118483238Y-120848380D01*
X118673714Y-120848380D01*
X118768952Y-120800761D01*
X117435619Y-120848380D02*
X117435619Y-120324571D01*
X117483238Y-120229333D01*
X117578476Y-120181714D01*
X117768952Y-120181714D01*
X117864190Y-120229333D01*
X117435619Y-120800761D02*
X117530857Y-120848380D01*
X117768952Y-120848380D01*
X117864190Y-120800761D01*
X117911809Y-120705523D01*
X117911809Y-120610285D01*
X117864190Y-120515047D01*
X117768952Y-120467428D01*
X117530857Y-120467428D01*
X117435619Y-120419809D01*
X116530857Y-120800761D02*
X116626095Y-120848380D01*
X116816571Y-120848380D01*
X116911809Y-120800761D01*
X116959428Y-120753142D01*
X117007047Y-120657904D01*
X117007047Y-120372190D01*
X116959428Y-120276952D01*
X116911809Y-120229333D01*
X116816571Y-120181714D01*
X116626095Y-120181714D01*
X116530857Y-120229333D01*
X116102285Y-120848380D02*
X116102285Y-119848380D01*
X116007047Y-120467428D02*
X115721333Y-120848380D01*
X115721333Y-120181714D02*
X116102285Y-120562666D01*
X119888000Y-113244380D02*
X119888000Y-113482476D01*
X120126095Y-113387238D02*
X119888000Y-113482476D01*
X119649904Y-113387238D01*
X120030857Y-113672952D02*
X119888000Y-113482476D01*
X119745142Y-113672952D01*
X119888000Y-113244380D02*
X119888000Y-113482476D01*
X120126095Y-113387238D02*
X119888000Y-113482476D01*
X119649904Y-113387238D01*
X120030857Y-113672952D02*
X119888000Y-113482476D01*
X119745142Y-113672952D01*
X150939333Y-114196761D02*
X150796476Y-114244380D01*
X150558380Y-114244380D01*
X150463142Y-114196761D01*
X150415523Y-114149142D01*
X150367904Y-114053904D01*
X150367904Y-113958666D01*
X150415523Y-113863428D01*
X150463142Y-113815809D01*
X150558380Y-113768190D01*
X150748857Y-113720571D01*
X150844095Y-113672952D01*
X150891714Y-113625333D01*
X150939333Y-113530095D01*
X150939333Y-113434857D01*
X150891714Y-113339619D01*
X150844095Y-113292000D01*
X150748857Y-113244380D01*
X150510761Y-113244380D01*
X150367904Y-113292000D01*
X150034571Y-113244380D02*
X149796476Y-114244380D01*
X149606000Y-113530095D01*
X149415523Y-114244380D01*
X149177428Y-113244380D01*
X148367904Y-113244380D02*
X148558380Y-113244380D01*
X148653619Y-113292000D01*
X148701238Y-113339619D01*
X148796476Y-113482476D01*
X148844095Y-113672952D01*
X148844095Y-114053904D01*
X148796476Y-114149142D01*
X148748857Y-114196761D01*
X148653619Y-114244380D01*
X148463142Y-114244380D01*
X148367904Y-114196761D01*
X148320285Y-114149142D01*
X148272666Y-114053904D01*
X148272666Y-113815809D01*
X148320285Y-113720571D01*
X148367904Y-113672952D01*
X148463142Y-113625333D01*
X148653619Y-113625333D01*
X148748857Y-113672952D01*
X148796476Y-113720571D01*
X148844095Y-113815809D01*
X153780666Y-120848380D02*
X154114000Y-120372190D01*
X154352095Y-120848380D02*
X154352095Y-119848380D01*
X153971142Y-119848380D01*
X153875904Y-119896000D01*
X153828285Y-119943619D01*
X153780666Y-120038857D01*
X153780666Y-120181714D01*
X153828285Y-120276952D01*
X153875904Y-120324571D01*
X153971142Y-120372190D01*
X154352095Y-120372190D01*
X153447333Y-120848380D02*
X152923523Y-120181714D01*
X153447333Y-120181714D02*
X152923523Y-120848380D01*
X152590190Y-120800761D02*
X152447333Y-120848380D01*
X152209238Y-120848380D01*
X152114000Y-120800761D01*
X152066380Y-120753142D01*
X152018761Y-120657904D01*
X152018761Y-120562666D01*
X152066380Y-120467428D01*
X152114000Y-120419809D01*
X152209238Y-120372190D01*
X152399714Y-120324571D01*
X152494952Y-120276952D01*
X152542571Y-120229333D01*
X152590190Y-120134095D01*
X152590190Y-120038857D01*
X152542571Y-119943619D01*
X152494952Y-119896000D01*
X152399714Y-119848380D01*
X152161619Y-119848380D01*
X152018761Y-119896000D01*
X151590190Y-120181714D02*
X151590190Y-120848380D01*
X151590190Y-120276952D02*
X151542571Y-120229333D01*
X151447333Y-120181714D01*
X151304476Y-120181714D01*
X151209238Y-120229333D01*
X151161619Y-120324571D01*
X151161619Y-120848380D01*
X150256857Y-120848380D02*
X150256857Y-120324571D01*
X150304476Y-120229333D01*
X150399714Y-120181714D01*
X150590190Y-120181714D01*
X150685428Y-120229333D01*
X150256857Y-120800761D02*
X150352095Y-120848380D01*
X150590190Y-120848380D01*
X150685428Y-120800761D01*
X150733047Y-120705523D01*
X150733047Y-120610285D01*
X150685428Y-120515047D01*
X150590190Y-120467428D01*
X150352095Y-120467428D01*
X150256857Y-120419809D01*
X149780666Y-120181714D02*
X149780666Y-121181714D01*
X149780666Y-120229333D02*
X149685428Y-120181714D01*
X149494952Y-120181714D01*
X149399714Y-120229333D01*
X149352095Y-120276952D01*
X149304476Y-120372190D01*
X149304476Y-120657904D01*
X149352095Y-120753142D01*
X149399714Y-120800761D01*
X149494952Y-120848380D01*
X149685428Y-120848380D01*
X149780666Y-120800761D01*
X148875904Y-120848380D02*
X148875904Y-119848380D01*
X148875904Y-120229333D02*
X148780666Y-120181714D01*
X148590190Y-120181714D01*
X148494952Y-120229333D01*
X148447333Y-120276952D01*
X148399714Y-120372190D01*
X148399714Y-120657904D01*
X148447333Y-120753142D01*
X148494952Y-120800761D01*
X148590190Y-120848380D01*
X148780666Y-120848380D01*
X148875904Y-120800761D01*
X147542571Y-120848380D02*
X147542571Y-120324571D01*
X147590190Y-120229333D01*
X147685428Y-120181714D01*
X147875904Y-120181714D01*
X147971142Y-120229333D01*
X147542571Y-120800761D02*
X147637809Y-120848380D01*
X147875904Y-120848380D01*
X147971142Y-120800761D01*
X148018761Y-120705523D01*
X148018761Y-120610285D01*
X147971142Y-120515047D01*
X147875904Y-120467428D01*
X147637809Y-120467428D01*
X147542571Y-120419809D01*
X146637809Y-120800761D02*
X146733047Y-120848380D01*
X146923523Y-120848380D01*
X147018761Y-120800761D01*
X147066380Y-120753142D01*
X147114000Y-120657904D01*
X147114000Y-120372190D01*
X147066380Y-120276952D01*
X147018761Y-120229333D01*
X146923523Y-120181714D01*
X146733047Y-120181714D01*
X146637809Y-120229333D01*
X146209238Y-120848380D02*
X146209238Y-119848380D01*
X146114000Y-120467428D02*
X145828285Y-120848380D01*
X145828285Y-120181714D02*
X146209238Y-120562666D01*
X149606000Y-113244380D02*
X149606000Y-113482476D01*
X149844095Y-113387238D02*
X149606000Y-113482476D01*
X149367904Y-113387238D01*
X149748857Y-113672952D02*
X149606000Y-113482476D01*
X149463142Y-113672952D01*
X149606000Y-113244380D02*
X149606000Y-113482476D01*
X149844095Y-113387238D02*
X149606000Y-113482476D01*
X149367904Y-113387238D01*
X149748857Y-113672952D02*
X149606000Y-113482476D01*
X149463142Y-113672952D01*
X122428761Y-115730666D02*
X122476380Y-115873523D01*
X122476380Y-116111619D01*
X122428761Y-116206857D01*
X122381142Y-116254476D01*
X122285904Y-116302095D01*
X122190666Y-116302095D01*
X122095428Y-116254476D01*
X122047809Y-116206857D01*
X122000190Y-116111619D01*
X121952571Y-115921142D01*
X121904952Y-115825904D01*
X121857333Y-115778285D01*
X121762095Y-115730666D01*
X121666857Y-115730666D01*
X121571619Y-115778285D01*
X121524000Y-115825904D01*
X121476380Y-115921142D01*
X121476380Y-116159238D01*
X121524000Y-116302095D01*
X121476380Y-116635428D02*
X122476380Y-116873523D01*
X121762095Y-117064000D01*
X122476380Y-117254476D01*
X121476380Y-117492571D01*
X121809714Y-118302095D02*
X122476380Y-118302095D01*
X121428761Y-118064000D02*
X122143047Y-117825904D01*
X122143047Y-118444952D01*
X126690380Y-115848000D02*
X126690380Y-115371809D01*
X125690380Y-115371809D01*
X125690380Y-116038476D02*
X125690380Y-116609904D01*
X126690380Y-116324190D02*
X125690380Y-116324190D01*
X126785619Y-116705142D02*
X126785619Y-117467047D01*
X126642761Y-117657523D02*
X126690380Y-117800380D01*
X126690380Y-118038476D01*
X126642761Y-118133714D01*
X126595142Y-118181333D01*
X126499904Y-118228952D01*
X126404666Y-118228952D01*
X126309428Y-118181333D01*
X126261809Y-118133714D01*
X126214190Y-118038476D01*
X126166571Y-117848000D01*
X126118952Y-117752761D01*
X126071333Y-117705142D01*
X125976095Y-117657523D01*
X125880857Y-117657523D01*
X125785619Y-117705142D01*
X125738000Y-117752761D01*
X125690380Y-117848000D01*
X125690380Y-118086095D01*
X125738000Y-118228952D01*
X125690380Y-118562285D02*
X126690380Y-118800380D01*
X125976095Y-118990857D01*
X126690380Y-119181333D01*
X125690380Y-119419428D01*
D12*
X134240190Y-114873523D02*
X133740190Y-114873523D01*
X133978285Y-114873523D02*
X133978285Y-115159238D01*
X134240190Y-115159238D02*
X133740190Y-115159238D01*
X134216380Y-115373523D02*
X134240190Y-115444952D01*
X134240190Y-115564000D01*
X134216380Y-115611619D01*
X134192571Y-115635428D01*
X134144952Y-115659238D01*
X134097333Y-115659238D01*
X134049714Y-115635428D01*
X134025904Y-115611619D01*
X134002095Y-115564000D01*
X133978285Y-115468761D01*
X133954476Y-115421142D01*
X133930666Y-115397333D01*
X133883047Y-115373523D01*
X133835428Y-115373523D01*
X133787809Y-115397333D01*
X133764000Y-115421142D01*
X133740190Y-115468761D01*
X133740190Y-115587809D01*
X133764000Y-115659238D01*
X134406857Y-115992571D02*
X133692571Y-115992571D01*
X134240190Y-116587809D02*
X134240190Y-116349714D01*
X133740190Y-116349714D01*
X134216380Y-116730666D02*
X134240190Y-116802095D01*
X134240190Y-116921142D01*
X134216380Y-116968761D01*
X134192571Y-116992571D01*
X134144952Y-117016380D01*
X134097333Y-117016380D01*
X134049714Y-116992571D01*
X134025904Y-116968761D01*
X134002095Y-116921142D01*
X133978285Y-116825904D01*
X133954476Y-116778285D01*
X133930666Y-116754476D01*
X133883047Y-116730666D01*
X133835428Y-116730666D01*
X133787809Y-116754476D01*
X133764000Y-116778285D01*
X133740190Y-116825904D01*
X133740190Y-116944952D01*
X133764000Y-117016380D01*
X134406857Y-117349714D02*
X133692571Y-117349714D01*
X134240190Y-117706857D02*
X133740190Y-117706857D01*
X133740190Y-117825904D01*
X133764000Y-117897333D01*
X133811619Y-117944952D01*
X133859238Y-117968761D01*
X133954476Y-117992571D01*
X134025904Y-117992571D01*
X134121142Y-117968761D01*
X134168761Y-117944952D01*
X134216380Y-117897333D01*
X134240190Y-117825904D01*
X134240190Y-117706857D01*
X134240190Y-118206857D02*
X133740190Y-118206857D01*
X133740190Y-118397333D01*
X133764000Y-118444952D01*
X133787809Y-118468761D01*
X133835428Y-118492571D01*
X133906857Y-118492571D01*
X133954476Y-118468761D01*
X133978285Y-118444952D01*
X134002095Y-118397333D01*
X134002095Y-118206857D01*
X134287809Y-118587809D02*
X134287809Y-118968761D01*
X134240190Y-119325904D02*
X134240190Y-119087809D01*
X133740190Y-119087809D01*
D11*
X122396761Y-110426666D02*
X122444380Y-110569523D01*
X122444380Y-110807619D01*
X122396761Y-110902857D01*
X122349142Y-110950476D01*
X122253904Y-110998095D01*
X122158666Y-110998095D01*
X122063428Y-110950476D01*
X122015809Y-110902857D01*
X121968190Y-110807619D01*
X121920571Y-110617142D01*
X121872952Y-110521904D01*
X121825333Y-110474285D01*
X121730095Y-110426666D01*
X121634857Y-110426666D01*
X121539619Y-110474285D01*
X121492000Y-110521904D01*
X121444380Y-110617142D01*
X121444380Y-110855238D01*
X121492000Y-110998095D01*
X121444380Y-111331428D02*
X122444380Y-111569523D01*
X121730095Y-111760000D01*
X122444380Y-111950476D01*
X121444380Y-112188571D01*
X121444380Y-112474285D02*
X121444380Y-113093333D01*
X121825333Y-112760000D01*
X121825333Y-112902857D01*
X121872952Y-112998095D01*
X121920571Y-113045714D01*
X122015809Y-113093333D01*
X122253904Y-113093333D01*
X122349142Y-113045714D01*
X122396761Y-112998095D01*
X122444380Y-112902857D01*
X122444380Y-112617142D01*
X122396761Y-112521904D01*
X122349142Y-112474285D01*
X125690380Y-109593333D02*
X125690380Y-110260000D01*
X126690380Y-109593333D01*
X126690380Y-110260000D01*
X126690380Y-111117142D02*
X126690380Y-110640952D01*
X125690380Y-110640952D01*
X126785619Y-111212380D02*
X126785619Y-111974285D01*
X126642761Y-112164761D02*
X126690380Y-112307619D01*
X126690380Y-112545714D01*
X126642761Y-112640952D01*
X126595142Y-112688571D01*
X126499904Y-112736190D01*
X126404666Y-112736190D01*
X126309428Y-112688571D01*
X126261809Y-112640952D01*
X126214190Y-112545714D01*
X126166571Y-112355238D01*
X126118952Y-112260000D01*
X126071333Y-112212380D01*
X125976095Y-112164761D01*
X125880857Y-112164761D01*
X125785619Y-112212380D01*
X125738000Y-112260000D01*
X125690380Y-112355238D01*
X125690380Y-112593333D01*
X125738000Y-112736190D01*
X125690380Y-113069523D02*
X126690380Y-113307619D01*
X125976095Y-113498095D01*
X126690380Y-113688571D01*
X125690380Y-113926666D01*
D12*
X134240190Y-110053523D02*
X133740190Y-110053523D01*
X133978285Y-110053523D02*
X133978285Y-110339238D01*
X134240190Y-110339238D02*
X133740190Y-110339238D01*
X134216380Y-110553523D02*
X134240190Y-110624952D01*
X134240190Y-110744000D01*
X134216380Y-110791619D01*
X134192571Y-110815428D01*
X134144952Y-110839238D01*
X134097333Y-110839238D01*
X134049714Y-110815428D01*
X134025904Y-110791619D01*
X134002095Y-110744000D01*
X133978285Y-110648761D01*
X133954476Y-110601142D01*
X133930666Y-110577333D01*
X133883047Y-110553523D01*
X133835428Y-110553523D01*
X133787809Y-110577333D01*
X133764000Y-110601142D01*
X133740190Y-110648761D01*
X133740190Y-110767809D01*
X133764000Y-110839238D01*
X134406857Y-111172571D02*
X133692571Y-111172571D01*
X134240190Y-111767809D02*
X134240190Y-111529714D01*
X133740190Y-111529714D01*
X134216380Y-111910666D02*
X134240190Y-111982095D01*
X134240190Y-112101142D01*
X134216380Y-112148761D01*
X134192571Y-112172571D01*
X134144952Y-112196380D01*
X134097333Y-112196380D01*
X134049714Y-112172571D01*
X134025904Y-112148761D01*
X134002095Y-112101142D01*
X133978285Y-112005904D01*
X133954476Y-111958285D01*
X133930666Y-111934476D01*
X133883047Y-111910666D01*
X133835428Y-111910666D01*
X133787809Y-111934476D01*
X133764000Y-111958285D01*
X133740190Y-112005904D01*
X133740190Y-112124952D01*
X133764000Y-112196380D01*
X134406857Y-112529714D02*
X133692571Y-112529714D01*
X134240190Y-112886857D02*
X133740190Y-112886857D01*
X133740190Y-113005904D01*
X133764000Y-113077333D01*
X133811619Y-113124952D01*
X133859238Y-113148761D01*
X133954476Y-113172571D01*
X134025904Y-113172571D01*
X134121142Y-113148761D01*
X134168761Y-113124952D01*
X134216380Y-113077333D01*
X134240190Y-113005904D01*
X134240190Y-112886857D01*
X134240190Y-113386857D02*
X133740190Y-113386857D01*
X133740190Y-113577333D01*
X133764000Y-113624952D01*
X133787809Y-113648761D01*
X133835428Y-113672571D01*
X133906857Y-113672571D01*
X133954476Y-113648761D01*
X133978285Y-113624952D01*
X134002095Y-113577333D01*
X134002095Y-113386857D01*
X134287809Y-113767809D02*
X134287809Y-114148761D01*
X134240190Y-114505904D02*
X134240190Y-114267809D01*
X133740190Y-114267809D01*
D11*
X147978761Y-115760666D02*
X148026380Y-115903523D01*
X148026380Y-116141619D01*
X147978761Y-116236857D01*
X147931142Y-116284476D01*
X147835904Y-116332095D01*
X147740666Y-116332095D01*
X147645428Y-116284476D01*
X147597809Y-116236857D01*
X147550190Y-116141619D01*
X147502571Y-115951142D01*
X147454952Y-115855904D01*
X147407333Y-115808285D01*
X147312095Y-115760666D01*
X147216857Y-115760666D01*
X147121619Y-115808285D01*
X147074000Y-115855904D01*
X147026380Y-115951142D01*
X147026380Y-116189238D01*
X147074000Y-116332095D01*
X147026380Y-116665428D02*
X148026380Y-116903523D01*
X147312095Y-117094000D01*
X148026380Y-117284476D01*
X147026380Y-117522571D01*
X147121619Y-117855904D02*
X147074000Y-117903523D01*
X147026380Y-117998761D01*
X147026380Y-118236857D01*
X147074000Y-118332095D01*
X147121619Y-118379714D01*
X147216857Y-118427333D01*
X147312095Y-118427333D01*
X147454952Y-118379714D01*
X148026380Y-117808285D01*
X148026380Y-118427333D01*
X143708380Y-115594000D02*
X143232190Y-115260666D01*
X143708380Y-115022571D02*
X142708380Y-115022571D01*
X142708380Y-115403523D01*
X142756000Y-115498761D01*
X142803619Y-115546380D01*
X142898857Y-115594000D01*
X143041714Y-115594000D01*
X143136952Y-115546380D01*
X143184571Y-115498761D01*
X143232190Y-115403523D01*
X143232190Y-115022571D01*
X142708380Y-115879714D02*
X142708380Y-116451142D01*
X143708380Y-116165428D02*
X142708380Y-116165428D01*
X143803619Y-116546380D02*
X143803619Y-117308285D01*
X143660761Y-117498761D02*
X143708380Y-117641619D01*
X143708380Y-117879714D01*
X143660761Y-117974952D01*
X143613142Y-118022571D01*
X143517904Y-118070190D01*
X143422666Y-118070190D01*
X143327428Y-118022571D01*
X143279809Y-117974952D01*
X143232190Y-117879714D01*
X143184571Y-117689238D01*
X143136952Y-117594000D01*
X143089333Y-117546380D01*
X142994095Y-117498761D01*
X142898857Y-117498761D01*
X142803619Y-117546380D01*
X142756000Y-117594000D01*
X142708380Y-117689238D01*
X142708380Y-117927333D01*
X142756000Y-118070190D01*
X142708380Y-118403523D02*
X143708380Y-118641619D01*
X142994095Y-118832095D01*
X143708380Y-119022571D01*
X142708380Y-119260666D01*
D12*
X135310190Y-115510666D02*
X135310190Y-115844000D01*
X135810190Y-115510666D01*
X135810190Y-115844000D01*
X135976857Y-116153523D02*
X135262571Y-116153523D01*
X135810190Y-116748761D02*
X135810190Y-116510666D01*
X135310190Y-116510666D01*
X135786380Y-116891619D02*
X135810190Y-116963047D01*
X135810190Y-117082095D01*
X135786380Y-117129714D01*
X135762571Y-117153523D01*
X135714952Y-117177333D01*
X135667333Y-117177333D01*
X135619714Y-117153523D01*
X135595904Y-117129714D01*
X135572095Y-117082095D01*
X135548285Y-116986857D01*
X135524476Y-116939238D01*
X135500666Y-116915428D01*
X135453047Y-116891619D01*
X135405428Y-116891619D01*
X135357809Y-116915428D01*
X135334000Y-116939238D01*
X135310190Y-116986857D01*
X135310190Y-117105904D01*
X135334000Y-117177333D01*
X135976857Y-117510666D02*
X135262571Y-117510666D01*
X135810190Y-117867809D02*
X135310190Y-117867809D01*
X135548285Y-117867809D02*
X135548285Y-118153523D01*
X135810190Y-118153523D02*
X135310190Y-118153523D01*
X135786380Y-118367809D02*
X135810190Y-118439238D01*
X135810190Y-118558285D01*
X135786380Y-118605904D01*
X135762571Y-118629714D01*
X135714952Y-118653523D01*
X135667333Y-118653523D01*
X135619714Y-118629714D01*
X135595904Y-118605904D01*
X135572095Y-118558285D01*
X135548285Y-118463047D01*
X135524476Y-118415428D01*
X135500666Y-118391619D01*
X135453047Y-118367809D01*
X135405428Y-118367809D01*
X135357809Y-118391619D01*
X135334000Y-118415428D01*
X135310190Y-118463047D01*
X135310190Y-118582095D01*
X135334000Y-118653523D01*
D11*
X147978761Y-110426666D02*
X148026380Y-110569523D01*
X148026380Y-110807619D01*
X147978761Y-110902857D01*
X147931142Y-110950476D01*
X147835904Y-110998095D01*
X147740666Y-110998095D01*
X147645428Y-110950476D01*
X147597809Y-110902857D01*
X147550190Y-110807619D01*
X147502571Y-110617142D01*
X147454952Y-110521904D01*
X147407333Y-110474285D01*
X147312095Y-110426666D01*
X147216857Y-110426666D01*
X147121619Y-110474285D01*
X147074000Y-110521904D01*
X147026380Y-110617142D01*
X147026380Y-110855238D01*
X147074000Y-110998095D01*
X147026380Y-111331428D02*
X148026380Y-111569523D01*
X147312095Y-111760000D01*
X148026380Y-111950476D01*
X147026380Y-112188571D01*
X148026380Y-113093333D02*
X148026380Y-112521904D01*
X148026380Y-112807619D02*
X147026380Y-112807619D01*
X147169238Y-112712380D01*
X147264476Y-112617142D01*
X147312095Y-112521904D01*
X142708380Y-109244095D02*
X142708380Y-109910761D01*
X143708380Y-109244095D01*
X143708380Y-109910761D01*
X143708380Y-110863142D02*
X143232190Y-110529809D01*
X143708380Y-110291714D02*
X142708380Y-110291714D01*
X142708380Y-110672666D01*
X142756000Y-110767904D01*
X142803619Y-110815523D01*
X142898857Y-110863142D01*
X143041714Y-110863142D01*
X143136952Y-110815523D01*
X143184571Y-110767904D01*
X143232190Y-110672666D01*
X143232190Y-110291714D01*
X143803619Y-111053619D02*
X143803619Y-111815523D01*
X143660761Y-112006000D02*
X143708380Y-112148857D01*
X143708380Y-112386952D01*
X143660761Y-112482190D01*
X143613142Y-112529809D01*
X143517904Y-112577428D01*
X143422666Y-112577428D01*
X143327428Y-112529809D01*
X143279809Y-112482190D01*
X143232190Y-112386952D01*
X143184571Y-112196476D01*
X143136952Y-112101238D01*
X143089333Y-112053619D01*
X142994095Y-112006000D01*
X142898857Y-112006000D01*
X142803619Y-112053619D01*
X142756000Y-112101238D01*
X142708380Y-112196476D01*
X142708380Y-112434571D01*
X142756000Y-112577428D01*
X142708380Y-112910761D02*
X143708380Y-113148857D01*
X142994095Y-113339333D01*
X143708380Y-113529809D01*
X142708380Y-113767904D01*
D12*
X135310190Y-110176666D02*
X135310190Y-110510000D01*
X135810190Y-110176666D01*
X135810190Y-110510000D01*
X135976857Y-110819523D02*
X135262571Y-110819523D01*
X135810190Y-111414761D02*
X135810190Y-111176666D01*
X135310190Y-111176666D01*
X135786380Y-111557619D02*
X135810190Y-111629047D01*
X135810190Y-111748095D01*
X135786380Y-111795714D01*
X135762571Y-111819523D01*
X135714952Y-111843333D01*
X135667333Y-111843333D01*
X135619714Y-111819523D01*
X135595904Y-111795714D01*
X135572095Y-111748095D01*
X135548285Y-111652857D01*
X135524476Y-111605238D01*
X135500666Y-111581428D01*
X135453047Y-111557619D01*
X135405428Y-111557619D01*
X135357809Y-111581428D01*
X135334000Y-111605238D01*
X135310190Y-111652857D01*
X135310190Y-111771904D01*
X135334000Y-111843333D01*
X135976857Y-112176666D02*
X135262571Y-112176666D01*
X135810190Y-112533809D02*
X135310190Y-112533809D01*
X135548285Y-112533809D02*
X135548285Y-112819523D01*
X135810190Y-112819523D02*
X135310190Y-112819523D01*
X135786380Y-113033809D02*
X135810190Y-113105238D01*
X135810190Y-113224285D01*
X135786380Y-113271904D01*
X135762571Y-113295714D01*
X135714952Y-113319523D01*
X135667333Y-113319523D01*
X135619714Y-113295714D01*
X135595904Y-113271904D01*
X135572095Y-113224285D01*
X135548285Y-113129047D01*
X135524476Y-113081428D01*
X135500666Y-113057619D01*
X135453047Y-113033809D01*
X135405428Y-113033809D01*
X135357809Y-113057619D01*
X135334000Y-113081428D01*
X135310190Y-113129047D01*
X135310190Y-113248095D01*
X135334000Y-113319523D01*
D11*
X120155857Y-134471000D02*
X120191571Y-134435285D01*
X120227285Y-134471000D01*
X120191571Y-134506714D01*
X120155857Y-134471000D01*
X120227285Y-134471000D01*
X119477285Y-133792428D02*
X119477285Y-133935285D01*
X119513000Y-134006714D01*
X119548714Y-134042428D01*
X119655857Y-134113857D01*
X119798714Y-134149571D01*
X120084428Y-134149571D01*
X120155857Y-134113857D01*
X120191571Y-134078142D01*
X120227285Y-134006714D01*
X120227285Y-133863857D01*
X120191571Y-133792428D01*
X120155857Y-133756714D01*
X120084428Y-133721000D01*
X119905857Y-133721000D01*
X119834428Y-133756714D01*
X119798714Y-133792428D01*
X119763000Y-133863857D01*
X119763000Y-134006714D01*
X119798714Y-134078142D01*
X119834428Y-134113857D01*
X119905857Y-134149571D01*
X119798714Y-133292428D02*
X119763000Y-133363857D01*
X119727285Y-133399571D01*
X119655857Y-133435285D01*
X119620142Y-133435285D01*
X119548714Y-133399571D01*
X119513000Y-133363857D01*
X119477285Y-133292428D01*
X119477285Y-133149571D01*
X119513000Y-133078142D01*
X119548714Y-133042428D01*
X119620142Y-133006714D01*
X119655857Y-133006714D01*
X119727285Y-133042428D01*
X119763000Y-133078142D01*
X119798714Y-133149571D01*
X119798714Y-133292428D01*
X119834428Y-133363857D01*
X119870142Y-133399571D01*
X119941571Y-133435285D01*
X120084428Y-133435285D01*
X120155857Y-133399571D01*
X120191571Y-133363857D01*
X120227285Y-133292428D01*
X120227285Y-133149571D01*
X120191571Y-133078142D01*
X120155857Y-133042428D01*
X120084428Y-133006714D01*
X119941571Y-133006714D01*
X119870142Y-133042428D01*
X119834428Y-133078142D01*
X119798714Y-133149571D01*
X119727285Y-132363857D02*
X120227285Y-132363857D01*
X119727285Y-132685285D02*
X120120142Y-132685285D01*
X120191571Y-132649571D01*
X120227285Y-132578142D01*
X120227285Y-132471000D01*
X120191571Y-132399571D01*
X120155857Y-132363857D01*
X119834428Y-131756714D02*
X119834428Y-132006714D01*
X120227285Y-132006714D02*
X119477285Y-132006714D01*
X119477285Y-131649571D01*
X122695857Y-134217000D02*
X122731571Y-134181285D01*
X122767285Y-134217000D01*
X122731571Y-134252714D01*
X122695857Y-134217000D01*
X122767285Y-134217000D01*
X122017285Y-133931285D02*
X122017285Y-133467000D01*
X122303000Y-133717000D01*
X122303000Y-133609857D01*
X122338714Y-133538428D01*
X122374428Y-133502714D01*
X122445857Y-133467000D01*
X122624428Y-133467000D01*
X122695857Y-133502714D01*
X122731571Y-133538428D01*
X122767285Y-133609857D01*
X122767285Y-133824142D01*
X122731571Y-133895571D01*
X122695857Y-133931285D01*
X122017285Y-133217000D02*
X122017285Y-132752714D01*
X122303000Y-133002714D01*
X122303000Y-132895571D01*
X122338714Y-132824142D01*
X122374428Y-132788428D01*
X122445857Y-132752714D01*
X122624428Y-132752714D01*
X122695857Y-132788428D01*
X122731571Y-132824142D01*
X122767285Y-132895571D01*
X122767285Y-133109857D01*
X122731571Y-133181285D01*
X122695857Y-133217000D01*
X122267285Y-132109857D02*
X122767285Y-132109857D01*
X122267285Y-132431285D02*
X122660142Y-132431285D01*
X122731571Y-132395571D01*
X122767285Y-132324142D01*
X122767285Y-132217000D01*
X122731571Y-132145571D01*
X122695857Y-132109857D01*
X122374428Y-131502714D02*
X122374428Y-131752714D01*
X122767285Y-131752714D02*
X122017285Y-131752714D01*
X122017285Y-131395571D01*
X125235857Y-134217000D02*
X125271571Y-134181285D01*
X125307285Y-134217000D01*
X125271571Y-134252714D01*
X125235857Y-134217000D01*
X125307285Y-134217000D01*
X124628714Y-133895571D02*
X124593000Y-133859857D01*
X124557285Y-133788428D01*
X124557285Y-133609857D01*
X124593000Y-133538428D01*
X124628714Y-133502714D01*
X124700142Y-133467000D01*
X124771571Y-133467000D01*
X124878714Y-133502714D01*
X125307285Y-133931285D01*
X125307285Y-133467000D01*
X124628714Y-133181285D02*
X124593000Y-133145571D01*
X124557285Y-133074142D01*
X124557285Y-132895571D01*
X124593000Y-132824142D01*
X124628714Y-132788428D01*
X124700142Y-132752714D01*
X124771571Y-132752714D01*
X124878714Y-132788428D01*
X125307285Y-133217000D01*
X125307285Y-132752714D01*
X124807285Y-132109857D02*
X125307285Y-132109857D01*
X124807285Y-132431285D02*
X125200142Y-132431285D01*
X125271571Y-132395571D01*
X125307285Y-132324142D01*
X125307285Y-132217000D01*
X125271571Y-132145571D01*
X125235857Y-132109857D01*
X124914428Y-131502714D02*
X124914428Y-131752714D01*
X125307285Y-131752714D02*
X124557285Y-131752714D01*
X124557285Y-131395571D01*
X128029857Y-134217000D02*
X128065571Y-134181285D01*
X128101285Y-134217000D01*
X128065571Y-134252714D01*
X128029857Y-134217000D01*
X128101285Y-134217000D01*
X128101285Y-133467000D02*
X128101285Y-133895571D01*
X128101285Y-133681285D02*
X127351285Y-133681285D01*
X127458428Y-133752714D01*
X127529857Y-133824142D01*
X127565571Y-133895571D01*
X127351285Y-132788428D02*
X127351285Y-133145571D01*
X127708428Y-133181285D01*
X127672714Y-133145571D01*
X127637000Y-133074142D01*
X127637000Y-132895571D01*
X127672714Y-132824142D01*
X127708428Y-132788428D01*
X127779857Y-132752714D01*
X127958428Y-132752714D01*
X128029857Y-132788428D01*
X128065571Y-132824142D01*
X128101285Y-132895571D01*
X128101285Y-133074142D01*
X128065571Y-133145571D01*
X128029857Y-133181285D01*
X127601285Y-132109857D02*
X128101285Y-132109857D01*
X127601285Y-132431285D02*
X127994142Y-132431285D01*
X128065571Y-132395571D01*
X128101285Y-132324142D01*
X128101285Y-132217000D01*
X128065571Y-132145571D01*
X128029857Y-132109857D01*
X127708428Y-131502714D02*
X127708428Y-131752714D01*
X128101285Y-131752714D02*
X127351285Y-131752714D01*
X127351285Y-131395571D01*
X113179000Y-111519857D02*
X113214714Y-111555571D01*
X113179000Y-111591285D01*
X113143285Y-111555571D01*
X113179000Y-111519857D01*
X113179000Y-111591285D01*
X113857571Y-110841285D02*
X113714714Y-110841285D01*
X113643285Y-110877000D01*
X113607571Y-110912714D01*
X113536142Y-111019857D01*
X113500428Y-111162714D01*
X113500428Y-111448428D01*
X113536142Y-111519857D01*
X113571857Y-111555571D01*
X113643285Y-111591285D01*
X113786142Y-111591285D01*
X113857571Y-111555571D01*
X113893285Y-111519857D01*
X113929000Y-111448428D01*
X113929000Y-111269857D01*
X113893285Y-111198428D01*
X113857571Y-111162714D01*
X113786142Y-111127000D01*
X113643285Y-111127000D01*
X113571857Y-111162714D01*
X113536142Y-111198428D01*
X113500428Y-111269857D01*
X114357571Y-111162714D02*
X114286142Y-111127000D01*
X114250428Y-111091285D01*
X114214714Y-111019857D01*
X114214714Y-110984142D01*
X114250428Y-110912714D01*
X114286142Y-110877000D01*
X114357571Y-110841285D01*
X114500428Y-110841285D01*
X114571857Y-110877000D01*
X114607571Y-110912714D01*
X114643285Y-110984142D01*
X114643285Y-111019857D01*
X114607571Y-111091285D01*
X114571857Y-111127000D01*
X114500428Y-111162714D01*
X114357571Y-111162714D01*
X114286142Y-111198428D01*
X114250428Y-111234142D01*
X114214714Y-111305571D01*
X114214714Y-111448428D01*
X114250428Y-111519857D01*
X114286142Y-111555571D01*
X114357571Y-111591285D01*
X114500428Y-111591285D01*
X114571857Y-111555571D01*
X114607571Y-111519857D01*
X114643285Y-111448428D01*
X114643285Y-111305571D01*
X114607571Y-111234142D01*
X114571857Y-111198428D01*
X114500428Y-111162714D01*
X115286142Y-111091285D02*
X115286142Y-111591285D01*
X114964714Y-111091285D02*
X114964714Y-111484142D01*
X115000428Y-111555571D01*
X115071857Y-111591285D01*
X115179000Y-111591285D01*
X115250428Y-111555571D01*
X115286142Y-111519857D01*
X115893285Y-111198428D02*
X115643285Y-111198428D01*
X115643285Y-111591285D02*
X115643285Y-110841285D01*
X116000428Y-110841285D01*
X113179000Y-114219857D02*
X113214714Y-114255571D01*
X113179000Y-114291285D01*
X113143285Y-114255571D01*
X113179000Y-114219857D01*
X113179000Y-114291285D01*
X113464714Y-113541285D02*
X113929000Y-113541285D01*
X113679000Y-113827000D01*
X113786142Y-113827000D01*
X113857571Y-113862714D01*
X113893285Y-113898428D01*
X113929000Y-113969857D01*
X113929000Y-114148428D01*
X113893285Y-114219857D01*
X113857571Y-114255571D01*
X113786142Y-114291285D01*
X113571857Y-114291285D01*
X113500428Y-114255571D01*
X113464714Y-114219857D01*
X114179000Y-113541285D02*
X114643285Y-113541285D01*
X114393285Y-113827000D01*
X114500428Y-113827000D01*
X114571857Y-113862714D01*
X114607571Y-113898428D01*
X114643285Y-113969857D01*
X114643285Y-114148428D01*
X114607571Y-114219857D01*
X114571857Y-114255571D01*
X114500428Y-114291285D01*
X114286142Y-114291285D01*
X114214714Y-114255571D01*
X114179000Y-114219857D01*
X115286142Y-113791285D02*
X115286142Y-114291285D01*
X114964714Y-113791285D02*
X114964714Y-114184142D01*
X115000428Y-114255571D01*
X115071857Y-114291285D01*
X115179000Y-114291285D01*
X115250428Y-114255571D01*
X115286142Y-114219857D01*
X115893285Y-113898428D02*
X115643285Y-113898428D01*
X115643285Y-114291285D02*
X115643285Y-113541285D01*
X116000428Y-113541285D01*
X113179000Y-116599857D02*
X113214714Y-116635571D01*
X113179000Y-116671285D01*
X113143285Y-116635571D01*
X113179000Y-116599857D01*
X113179000Y-116671285D01*
X113500428Y-115992714D02*
X113536142Y-115957000D01*
X113607571Y-115921285D01*
X113786142Y-115921285D01*
X113857571Y-115957000D01*
X113893285Y-115992714D01*
X113929000Y-116064142D01*
X113929000Y-116135571D01*
X113893285Y-116242714D01*
X113464714Y-116671285D01*
X113929000Y-116671285D01*
X114214714Y-115992714D02*
X114250428Y-115957000D01*
X114321857Y-115921285D01*
X114500428Y-115921285D01*
X114571857Y-115957000D01*
X114607571Y-115992714D01*
X114643285Y-116064142D01*
X114643285Y-116135571D01*
X114607571Y-116242714D01*
X114179000Y-116671285D01*
X114643285Y-116671285D01*
X115286142Y-116171285D02*
X115286142Y-116671285D01*
X114964714Y-116171285D02*
X114964714Y-116564142D01*
X115000428Y-116635571D01*
X115071857Y-116671285D01*
X115179000Y-116671285D01*
X115250428Y-116635571D01*
X115286142Y-116599857D01*
X115893285Y-116278428D02*
X115643285Y-116278428D01*
X115643285Y-116671285D02*
X115643285Y-115921285D01*
X116000428Y-115921285D01*
X112925000Y-119647857D02*
X112960714Y-119683571D01*
X112925000Y-119719285D01*
X112889285Y-119683571D01*
X112925000Y-119647857D01*
X112925000Y-119719285D01*
X113675000Y-119719285D02*
X113246428Y-119719285D01*
X113460714Y-119719285D02*
X113460714Y-118969285D01*
X113389285Y-119076428D01*
X113317857Y-119147857D01*
X113246428Y-119183571D01*
X114353571Y-118969285D02*
X113996428Y-118969285D01*
X113960714Y-119326428D01*
X113996428Y-119290714D01*
X114067857Y-119255000D01*
X114246428Y-119255000D01*
X114317857Y-119290714D01*
X114353571Y-119326428D01*
X114389285Y-119397857D01*
X114389285Y-119576428D01*
X114353571Y-119647857D01*
X114317857Y-119683571D01*
X114246428Y-119719285D01*
X114067857Y-119719285D01*
X113996428Y-119683571D01*
X113960714Y-119647857D01*
X115032142Y-119219285D02*
X115032142Y-119719285D01*
X114710714Y-119219285D02*
X114710714Y-119612142D01*
X114746428Y-119683571D01*
X114817857Y-119719285D01*
X114925000Y-119719285D01*
X114996428Y-119683571D01*
X115032142Y-119647857D01*
X115639285Y-119326428D02*
X115389285Y-119326428D01*
X115389285Y-119719285D02*
X115389285Y-118969285D01*
X115746428Y-118969285D01*
X153565000Y-119393857D02*
X153600714Y-119429571D01*
X153565000Y-119465285D01*
X153529285Y-119429571D01*
X153565000Y-119393857D01*
X153565000Y-119465285D01*
X154243571Y-118715285D02*
X154100714Y-118715285D01*
X154029285Y-118751000D01*
X153993571Y-118786714D01*
X153922142Y-118893857D01*
X153886428Y-119036714D01*
X153886428Y-119322428D01*
X153922142Y-119393857D01*
X153957857Y-119429571D01*
X154029285Y-119465285D01*
X154172142Y-119465285D01*
X154243571Y-119429571D01*
X154279285Y-119393857D01*
X154315000Y-119322428D01*
X154315000Y-119143857D01*
X154279285Y-119072428D01*
X154243571Y-119036714D01*
X154172142Y-119001000D01*
X154029285Y-119001000D01*
X153957857Y-119036714D01*
X153922142Y-119072428D01*
X153886428Y-119143857D01*
X154743571Y-119036714D02*
X154672142Y-119001000D01*
X154636428Y-118965285D01*
X154600714Y-118893857D01*
X154600714Y-118858142D01*
X154636428Y-118786714D01*
X154672142Y-118751000D01*
X154743571Y-118715285D01*
X154886428Y-118715285D01*
X154957857Y-118751000D01*
X154993571Y-118786714D01*
X155029285Y-118858142D01*
X155029285Y-118893857D01*
X154993571Y-118965285D01*
X154957857Y-119001000D01*
X154886428Y-119036714D01*
X154743571Y-119036714D01*
X154672142Y-119072428D01*
X154636428Y-119108142D01*
X154600714Y-119179571D01*
X154600714Y-119322428D01*
X154636428Y-119393857D01*
X154672142Y-119429571D01*
X154743571Y-119465285D01*
X154886428Y-119465285D01*
X154957857Y-119429571D01*
X154993571Y-119393857D01*
X155029285Y-119322428D01*
X155029285Y-119179571D01*
X154993571Y-119108142D01*
X154957857Y-119072428D01*
X154886428Y-119036714D01*
X155672142Y-118965285D02*
X155672142Y-119465285D01*
X155350714Y-118965285D02*
X155350714Y-119358142D01*
X155386428Y-119429571D01*
X155457857Y-119465285D01*
X155565000Y-119465285D01*
X155636428Y-119429571D01*
X155672142Y-119393857D01*
X156279285Y-119072428D02*
X156029285Y-119072428D01*
X156029285Y-119465285D02*
X156029285Y-118715285D01*
X156386428Y-118715285D01*
X153565000Y-116599857D02*
X153600714Y-116635571D01*
X153565000Y-116671285D01*
X153529285Y-116635571D01*
X153565000Y-116599857D01*
X153565000Y-116671285D01*
X153850714Y-115921285D02*
X154315000Y-115921285D01*
X154065000Y-116207000D01*
X154172142Y-116207000D01*
X154243571Y-116242714D01*
X154279285Y-116278428D01*
X154315000Y-116349857D01*
X154315000Y-116528428D01*
X154279285Y-116599857D01*
X154243571Y-116635571D01*
X154172142Y-116671285D01*
X153957857Y-116671285D01*
X153886428Y-116635571D01*
X153850714Y-116599857D01*
X154565000Y-115921285D02*
X155029285Y-115921285D01*
X154779285Y-116207000D01*
X154886428Y-116207000D01*
X154957857Y-116242714D01*
X154993571Y-116278428D01*
X155029285Y-116349857D01*
X155029285Y-116528428D01*
X154993571Y-116599857D01*
X154957857Y-116635571D01*
X154886428Y-116671285D01*
X154672142Y-116671285D01*
X154600714Y-116635571D01*
X154565000Y-116599857D01*
X155672142Y-116171285D02*
X155672142Y-116671285D01*
X155350714Y-116171285D02*
X155350714Y-116564142D01*
X155386428Y-116635571D01*
X155457857Y-116671285D01*
X155565000Y-116671285D01*
X155636428Y-116635571D01*
X155672142Y-116599857D01*
X156279285Y-116278428D02*
X156029285Y-116278428D01*
X156029285Y-116671285D02*
X156029285Y-115921285D01*
X156386428Y-115921285D01*
X153565000Y-114059857D02*
X153600714Y-114095571D01*
X153565000Y-114131285D01*
X153529285Y-114095571D01*
X153565000Y-114059857D01*
X153565000Y-114131285D01*
X153886428Y-113452714D02*
X153922142Y-113417000D01*
X153993571Y-113381285D01*
X154172142Y-113381285D01*
X154243571Y-113417000D01*
X154279285Y-113452714D01*
X154315000Y-113524142D01*
X154315000Y-113595571D01*
X154279285Y-113702714D01*
X153850714Y-114131285D01*
X154315000Y-114131285D01*
X154600714Y-113452714D02*
X154636428Y-113417000D01*
X154707857Y-113381285D01*
X154886428Y-113381285D01*
X154957857Y-113417000D01*
X154993571Y-113452714D01*
X155029285Y-113524142D01*
X155029285Y-113595571D01*
X154993571Y-113702714D01*
X154565000Y-114131285D01*
X155029285Y-114131285D01*
X155672142Y-113631285D02*
X155672142Y-114131285D01*
X155350714Y-113631285D02*
X155350714Y-114024142D01*
X155386428Y-114095571D01*
X155457857Y-114131285D01*
X155565000Y-114131285D01*
X155636428Y-114095571D01*
X155672142Y-114059857D01*
X156279285Y-113738428D02*
X156029285Y-113738428D01*
X156029285Y-114131285D02*
X156029285Y-113381285D01*
X156386428Y-113381285D01*
X153565000Y-111519857D02*
X153600714Y-111555571D01*
X153565000Y-111591285D01*
X153529285Y-111555571D01*
X153565000Y-111519857D01*
X153565000Y-111591285D01*
X154315000Y-111591285D02*
X153886428Y-111591285D01*
X154100714Y-111591285D02*
X154100714Y-110841285D01*
X154029285Y-110948428D01*
X153957857Y-111019857D01*
X153886428Y-111055571D01*
X154993571Y-110841285D02*
X154636428Y-110841285D01*
X154600714Y-111198428D01*
X154636428Y-111162714D01*
X154707857Y-111127000D01*
X154886428Y-111127000D01*
X154957857Y-111162714D01*
X154993571Y-111198428D01*
X155029285Y-111269857D01*
X155029285Y-111448428D01*
X154993571Y-111519857D01*
X154957857Y-111555571D01*
X154886428Y-111591285D01*
X154707857Y-111591285D01*
X154636428Y-111555571D01*
X154600714Y-111519857D01*
X155672142Y-111091285D02*
X155672142Y-111591285D01*
X155350714Y-111091285D02*
X155350714Y-111484142D01*
X155386428Y-111555571D01*
X155457857Y-111591285D01*
X155565000Y-111591285D01*
X155636428Y-111555571D01*
X155672142Y-111519857D01*
X156279285Y-111198428D02*
X156029285Y-111198428D01*
X156029285Y-111591285D02*
X156029285Y-110841285D01*
X156386428Y-110841285D01*
X135395857Y-134217000D02*
X135431571Y-134181285D01*
X135467285Y-134217000D01*
X135431571Y-134252714D01*
X135395857Y-134217000D01*
X135467285Y-134217000D01*
X134717285Y-133538428D02*
X134717285Y-133681285D01*
X134753000Y-133752714D01*
X134788714Y-133788428D01*
X134895857Y-133859857D01*
X135038714Y-133895571D01*
X135324428Y-133895571D01*
X135395857Y-133859857D01*
X135431571Y-133824142D01*
X135467285Y-133752714D01*
X135467285Y-133609857D01*
X135431571Y-133538428D01*
X135395857Y-133502714D01*
X135324428Y-133467000D01*
X135145857Y-133467000D01*
X135074428Y-133502714D01*
X135038714Y-133538428D01*
X135003000Y-133609857D01*
X135003000Y-133752714D01*
X135038714Y-133824142D01*
X135074428Y-133859857D01*
X135145857Y-133895571D01*
X135038714Y-133038428D02*
X135003000Y-133109857D01*
X134967285Y-133145571D01*
X134895857Y-133181285D01*
X134860142Y-133181285D01*
X134788714Y-133145571D01*
X134753000Y-133109857D01*
X134717285Y-133038428D01*
X134717285Y-132895571D01*
X134753000Y-132824142D01*
X134788714Y-132788428D01*
X134860142Y-132752714D01*
X134895857Y-132752714D01*
X134967285Y-132788428D01*
X135003000Y-132824142D01*
X135038714Y-132895571D01*
X135038714Y-133038428D01*
X135074428Y-133109857D01*
X135110142Y-133145571D01*
X135181571Y-133181285D01*
X135324428Y-133181285D01*
X135395857Y-133145571D01*
X135431571Y-133109857D01*
X135467285Y-133038428D01*
X135467285Y-132895571D01*
X135431571Y-132824142D01*
X135395857Y-132788428D01*
X135324428Y-132752714D01*
X135181571Y-132752714D01*
X135110142Y-132788428D01*
X135074428Y-132824142D01*
X135038714Y-132895571D01*
X134967285Y-132109857D02*
X135467285Y-132109857D01*
X134967285Y-132431285D02*
X135360142Y-132431285D01*
X135431571Y-132395571D01*
X135467285Y-132324142D01*
X135467285Y-132217000D01*
X135431571Y-132145571D01*
X135395857Y-132109857D01*
X135074428Y-131502714D02*
X135074428Y-131752714D01*
X135467285Y-131752714D02*
X134717285Y-131752714D01*
X134717285Y-131395571D01*
X138189857Y-134471000D02*
X138225571Y-134435285D01*
X138261285Y-134471000D01*
X138225571Y-134506714D01*
X138189857Y-134471000D01*
X138261285Y-134471000D01*
X137511285Y-134185285D02*
X137511285Y-133721000D01*
X137797000Y-133971000D01*
X137797000Y-133863857D01*
X137832714Y-133792428D01*
X137868428Y-133756714D01*
X137939857Y-133721000D01*
X138118428Y-133721000D01*
X138189857Y-133756714D01*
X138225571Y-133792428D01*
X138261285Y-133863857D01*
X138261285Y-134078142D01*
X138225571Y-134149571D01*
X138189857Y-134185285D01*
X137511285Y-133471000D02*
X137511285Y-133006714D01*
X137797000Y-133256714D01*
X137797000Y-133149571D01*
X137832714Y-133078142D01*
X137868428Y-133042428D01*
X137939857Y-133006714D01*
X138118428Y-133006714D01*
X138189857Y-133042428D01*
X138225571Y-133078142D01*
X138261285Y-133149571D01*
X138261285Y-133363857D01*
X138225571Y-133435285D01*
X138189857Y-133471000D01*
X137761285Y-132363857D02*
X138261285Y-132363857D01*
X137761285Y-132685285D02*
X138154142Y-132685285D01*
X138225571Y-132649571D01*
X138261285Y-132578142D01*
X138261285Y-132471000D01*
X138225571Y-132399571D01*
X138189857Y-132363857D01*
X137868428Y-131756714D02*
X137868428Y-132006714D01*
X138261285Y-132006714D02*
X137511285Y-132006714D01*
X137511285Y-131649571D01*
X140729857Y-134217000D02*
X140765571Y-134181285D01*
X140801285Y-134217000D01*
X140765571Y-134252714D01*
X140729857Y-134217000D01*
X140801285Y-134217000D01*
X140122714Y-133895571D02*
X140087000Y-133859857D01*
X140051285Y-133788428D01*
X140051285Y-133609857D01*
X140087000Y-133538428D01*
X140122714Y-133502714D01*
X140194142Y-133467000D01*
X140265571Y-133467000D01*
X140372714Y-133502714D01*
X140801285Y-133931285D01*
X140801285Y-133467000D01*
X140122714Y-133181285D02*
X140087000Y-133145571D01*
X140051285Y-133074142D01*
X140051285Y-132895571D01*
X140087000Y-132824142D01*
X140122714Y-132788428D01*
X140194142Y-132752714D01*
X140265571Y-132752714D01*
X140372714Y-132788428D01*
X140801285Y-133217000D01*
X140801285Y-132752714D01*
X140301285Y-132109857D02*
X140801285Y-132109857D01*
X140301285Y-132431285D02*
X140694142Y-132431285D01*
X140765571Y-132395571D01*
X140801285Y-132324142D01*
X140801285Y-132217000D01*
X140765571Y-132145571D01*
X140729857Y-132109857D01*
X140408428Y-131502714D02*
X140408428Y-131752714D01*
X140801285Y-131752714D02*
X140051285Y-131752714D01*
X140051285Y-131395571D01*
X143523857Y-134217000D02*
X143559571Y-134181285D01*
X143595285Y-134217000D01*
X143559571Y-134252714D01*
X143523857Y-134217000D01*
X143595285Y-134217000D01*
X143595285Y-133467000D02*
X143595285Y-133895571D01*
X143595285Y-133681285D02*
X142845285Y-133681285D01*
X142952428Y-133752714D01*
X143023857Y-133824142D01*
X143059571Y-133895571D01*
X142845285Y-132788428D02*
X142845285Y-133145571D01*
X143202428Y-133181285D01*
X143166714Y-133145571D01*
X143131000Y-133074142D01*
X143131000Y-132895571D01*
X143166714Y-132824142D01*
X143202428Y-132788428D01*
X143273857Y-132752714D01*
X143452428Y-132752714D01*
X143523857Y-132788428D01*
X143559571Y-132824142D01*
X143595285Y-132895571D01*
X143595285Y-133074142D01*
X143559571Y-133145571D01*
X143523857Y-133181285D01*
X143095285Y-132109857D02*
X143595285Y-132109857D01*
X143095285Y-132431285D02*
X143488142Y-132431285D01*
X143559571Y-132395571D01*
X143595285Y-132324142D01*
X143595285Y-132217000D01*
X143559571Y-132145571D01*
X143523857Y-132109857D01*
X143202428Y-131502714D02*
X143202428Y-131752714D01*
X143595285Y-131752714D02*
X142845285Y-131752714D01*
X142845285Y-131395571D01*
M02*
